<?xml version="1.0" encoding="UTF-8"?>
<!DOCTYPE svg PUBLIC "-//W3C//DTD SVG 1.1//EN" "http://www.w3.org/Graphics/SVG/1.1/DTD/svg11.dtd">
<!-- Creator: CorelDRAW X7 -->
<svg xmlns="http://www.w3.org/2000/svg" xml:space="preserve" width="129.153mm" height="129.153mm" version="1.1" style="shape-rendering:geometricPrecision; text-rendering:geometricPrecision; image-rendering:optimizeQuality; fill-rule:evenodd; clip-rule:evenodd"
viewBox="0 0 1465 1465"
 xmlns:xlink="http://www.w3.org/1999/xlink">
 <defs>
  <style type="text/css">
   <![CDATA[
    .str0 {stroke:#FFA800;stroke-width:34.0388}
    .fil1 {fill:none}
    .fil0 {fill:#FFA800}
   ]]>
  </style>
 </defs>
 <g id="Layer_x0020_1">
  <metadata id="CorelCorpID_0Corel-Layer"/>
  <g id="_2601856932032">
   <g>
    <path class="fil0" d="M977 1117c-23,-2 -109,0 -139,0 -46,0 -68,-7 -85,-54 -91,1 -187,0 -280,0 -14,0 -28,3 -28,-13 -1,-15 13,-14 26,-14l121 0c53,0 107,2 160,0l0 -53c-74,-2 -163,0 -240,0 -13,0 -27,0 -40,0 -12,0 -27,2 -27,-13 0,-15 13,-14 26,-14l121 0c52,0 107,2 160,0l0 -53c-76,-2 -161,0 -239,0 -13,0 -26,0 -40,0 -13,0 -28,2 -28,-13 -1,-15 13,-14 26,-14l121 0c53,0 107,1 160,0l0 -54c-91,-1 -187,0 -279,0 -12,0 -28,3 -28,-13 0,-15 13,-13 26,-13l121 0c52,0 107,1 160,0l0 -54c-75,-2 -162,0 -239,0 -13,0 -26,0 -40,0 -13,0 -27,2 -28,-12 -1,-16 14,-15 26,-15 92,0 191,2 280,0 8,-36 -22,-118 45,-143 22,-8 150,-3 183,-4l0 -16c-1,-2 0,-1 -1,-2 -7,-3 -90,-4 -103,-4 -36,0 -51,1 -80,-28 -27,-27 -20,-58 -22,-86 -2,-34 -9,-61 -16,-91 -75,1 -151,0 -226,0 -37,0 -75,-1 -112,0 -48,1 -42,48 -42,72l0 678c0,20 3,33 14,43 14,11 26,10 47,10l453 0c28,0 77,8 86,-27zm-367 -695c-61,7 -107,58 -98,129 8,61 59,105 129,96 60,-7 105,-59 96,-128 -7,-61 -58,-105 -127,-97z"/>
    <path class="fil0" d="M810 596c-14,3 -24,13 -29,24 -4,12 -2,37 -2,50l0 369c0,19 2,31 12,40 12,11 23,11 42,11 27,0 251,1 262,-1 14,-3 24,-13 29,-24 4,-12 2,-36 2,-50l0 -368c0,-9 1,-17 -2,-25 -2,-8 -5,-11 -10,-16 -12,-11 -22,-11 -41,-11 -29,0 -251,-2 -263,1zm122 174c-9,2 -17,10 -19,21 -1,5 -1,33 0,38 3,10 10,17 20,19 6,2 34,2 40,0 10,-2 17,-10 19,-20 1,-5 1,-34 0,-38 -2,-10 -10,-18 -20,-20 -6,-2 -34,-2 -40,0zm2 93c-11,3 -18,10 -21,20 -1,5 -1,33 0,38 2,10 10,18 19,21 6,1 34,1 40,0 10,-2 18,-11 20,-20 1,-5 1,-33 0,-38 -2,-11 -9,-18 -19,-20 -6,-2 -33,-2 -39,-1zm2 93c-11,2 -19,9 -22,19 -2,5 -2,32 -1,38 1,11 9,19 18,22 6,2 32,2 39,1 10,-1 18,-9 21,-18 2,-6 2,-32 1,-39 -1,-10 -9,-19 -18,-21 -6,-2 -31,-2 -38,-2zm-97 -186c-10,2 -18,10 -20,20 -1,6 -1,34 1,39 2,9 10,17 20,19 5,1 33,1 39,0 9,-2 17,-10 19,-20 2,-5 2,-33 0,-39 -2,-10 -10,-17 -20,-19 -6,-2 -34,-2 -39,0zm186 0c-10,4 -17,10 -19,22 -1,8 -1,32 2,39 3,9 11,17 22,18 7,1 32,1 38,-1 9,-3 17,-12 18,-22 1,-7 1,-33 -1,-38 -3,-9 -11,-17 -22,-19 -7,-1 -31,-1 -38,1zm-182 186c-12,2 -19,9 -23,18 -2,6 -2,31 -1,39 2,11 9,19 18,22 6,2 31,2 38,1 11,-1 20,-9 22,-18 3,-6 3,-31 2,-38 -2,-11 -9,-19 -18,-22 -6,-2 -32,-2 -38,-2zm-3 -93c-11,3 -18,10 -21,21 -1,5 -1,33 1,38 2,10 10,18 20,20 5,1 33,1 39,0 9,-3 17,-10 19,-20 2,-6 2,-34 0,-40 -2,-9 -10,-17 -20,-19 -7,-1 -32,-1 -38,0zm187 0c-20,5 -21,21 -21,43 0,21 0,42 0,64 0,17 -4,45 7,57 5,6 11,9 22,9 8,0 24,1 31,0 23,-6 20,-28 20,-43 0,-21 0,-42 0,-63 0,-28 8,-66 -28,-68 -8,0 -24,0 -31,1zm-177 -213c-41,10 -40,68 -13,85 13,8 23,7 39,7 25,0 167,2 179,-1 38,-9 42,-67 13,-86 -10,-7 -24,-6 -39,-6 -25,0 -166,-2 -179,1z"/>
    <path class="fil0" d="M979 525c0,-52 5,-89 -32,-132 -20,-22 -41,-39 -71,-48 -26,-7 -63,-4 -91,-4 5,31 10,39 14,80 3,31 -4,59 15,79 24,24 36,20 75,20 32,0 60,0 90,5z"/>
    <path class="fil0" d="M601 556l-23 5c1,8 7,17 12,21 12,8 24,7 25,10l0 14 13 0 1 -15c11,-4 25,-3 34,-23 8,-17 -2,-34 -13,-40 -10,-6 -37,-6 -41,-16 -4,-10 7,-13 16,-13 11,1 13,6 17,13 6,-2 16,-4 21,-8 -7,-20 -24,-21 -34,-25l0 -12 -14 -1c0,22 1,10 -14,18 -13,7 -22,26 -16,41 4,9 8,12 16,16 11,5 43,7 39,21 -3,7 -13,10 -22,8 -12,-2 -13,-6 -17,-14z"/>
   </g>
   <circle class="fil1 str0" cx="733" cy="733" r="716"/>
  </g>
 </g>
</svg>
