<?xml version="1.0" encoding="UTF-8"?>
<!DOCTYPE svg PUBLIC "-//W3C//DTD SVG 1.1//EN" "http://www.w3.org/Graphics/SVG/1.1/DTD/svg11.dtd">
<!-- Creator: CorelDRAW X7 -->
<svg xmlns="http://www.w3.org/2000/svg" xml:space="preserve" width="129.153mm" height="129.153mm" version="1.1" style="shape-rendering:geometricPrecision; text-rendering:geometricPrecision; image-rendering:optimizeQuality; fill-rule:evenodd; clip-rule:evenodd"
viewBox="0 0 1148 1148"
 xmlns:xlink="http://www.w3.org/1999/xlink">
 <defs>
  <style type="text/css">
   <![CDATA[
    .str0 {stroke:#FFA800;stroke-width:26.6557}
    .fil0 {fill:none}
    .fil1 {fill:#FFA800}
   ]]>
  </style>
 </defs>
 <g id="Layer_x0020_1">
  <metadata id="CorelCorpID_0Corel-Layer"/>
  <g id="_2601856945696">
   <circle class="fil0 str0" cx="574" cy="574" r="560"/>
   <g>
    <polygon class="fil1" points="477,740 525,740 525,918 477,918 "/>
    <polygon class="fil1" points="548,918 596,918 596,669 548,732 "/>
    <polygon class="fil1" points="620,645 667,645 667,918 620,918 "/>
    <polygon class="fil1" points="311,918 311,841 243,918 "/>
    <polygon class="fil1" points="334,918 382,918 382,760 334,814 "/>
    <polygon class="fil1" points="406,740 453,740 453,918 406,918 "/>
    <polygon class="fil1" points="691,645 691,918 739,918 739,626 720,645 "/>
    <path class="fil1" d="M774 277c-59,0 -107,48 -107,107 0,59 48,107 107,107 59,0 107,-48 107,-107 0,-59 -48,-107 -107,-107zm48 83l-24 0 0 -12 -36 0c-6,0 -12,5 -12,12 0,6 6,12 12,12l24 0c20,0 36,16 36,35 0,20 -16,36 -36,36l0 24 -24 0 0 -24 -35 0 0 -36 23 0 0 12 36 0c7,0 12,-5 12,-12 0,-6 -5,-12 -12,-12l-24 0c-19,0 -35,-16 -35,-35 0,-20 16,-36 35,-36l0 -24 24 0 0 24 36 0 0 36z"/>
    <path class="fil1" d="M762 602l0 316 48 0 0 -360c-1,1 -3,1 -4,1l-44 43z"/>
    <path class="fil1" d="M774 229c-85,0 -154,69 -154,155 0,85 69,154 154,154 85,0 155,-69 155,-154 0,-86 -70,-155 -155,-155zm0 285c-72,0 -130,-58 -130,-130 0,-72 58,-131 130,-131 72,0 131,59 131,131 0,72 -59,130 -131,130z"/>
    <path class="fil1" d="M834 918l47 0 0 -392c-14,11 -30,19 -47,25l0 367z"/>
    <polygon class="fil1" points="287,645 311,645 311,598 334,598 334,455 311,455 311,407 287,407 287,455 263,455 263,598 287,598 "/>
    <polygon class="fil1" points="382,586 406,586 406,538 430,538 430,419 406,419 406,372 382,372 382,419 358,419 358,538 382,538 "/>
    <polygon class="fil1" points="477,502 501,502 501,455 525,455 525,360 501,360 501,312 477,312 477,360 453,360 453,455 477,455 "/>
    <path class="fil1" d="M736 558c-9,-2 -18,-5 -26,-8l-24 24 -95 0 -84 95 -142 0 -146 158 17 16 139 -150 143 0 83 -95 95 0 40 -40z"/>
   </g>
  </g>
 </g>
</svg>
