<?xml version="1.0" encoding="UTF-8"?>
<!DOCTYPE svg PUBLIC "-//W3C//DTD SVG 1.1//EN" "http://www.w3.org/Graphics/SVG/1.1/DTD/svg11.dtd">
<!-- Creator: CorelDRAW X7 -->
<svg xmlns="http://www.w3.org/2000/svg" xml:space="preserve" width="46.3383mm" height="48.0844mm" version="1.1" style="shape-rendering:geometricPrecision; text-rendering:geometricPrecision; image-rendering:optimizeQuality; fill-rule:evenodd; clip-rule:evenodd"
viewBox="0 0 168 175"
 xmlns:xlink="http://www.w3.org/1999/xlink">
 <defs>
  <style type="text/css">
   <![CDATA[
    .str0 {stroke:#FEFEFE;stroke-width:3.6326}
    .fil0 {fill:none}
    .fil1 {fill:#FEFEFE}
   ]]>
  </style>
 </defs>
 <g id="Layer_x0020_1">
  <metadata id="CorelCorpID_0Corel-Layer"/>
  <g id="_3060037561520">
   <g>
    <path class="fil0 str0" d="M65 72c15,-1 28,-13 30,-28 3,-11 -1,-24 -9,-32 -7,-7 -18,-11 -29,-10 -13,1 -25,11 -30,24 -4,11 -1,26 8,35 7,8 19,13 30,11z"/>
    <path class="fil0 str0" d="M22 140c4,2 9,4 13,6 8,3 17,4 26,4 9,0 17,-1 25,-4 3,-1 6,-2 8,-3 0,-2 0,-4 0,-7 0,-16 11,-30 26,-35l0 -5c-13,-2 -26,-5 -39,-8 -7,11 -34,11 -41,0 -13,3 -25,6 -38,8 0,10 0,19 0,28 6,7 12,12 20,16z"/>
   </g>
   <circle class="fil0 str0" cx="130" cy="136" r="36"/>
   <path class="fil1" d="M127 115l0 4 -1 0c-3,0 -6,3 -7,4 -4,5 -2,12 3,15 3,1 4,1 7,1 1,0 6,0 7,1 2,1 3,5 0,7 -2,1 -2,1 -4,1 0,0 0,0 -1,0 -2,0 -9,0 -10,0 -2,1 -3,4 -1,5 1,0 2,1 3,0l4 1 0 3c0,3 2,4 4,3 1,-1 2,-1 2,-2 0,-2 0,-3 0,-4 1,0 3,-1 4,-1 3,-1 5,-4 6,-7 2,-6 -3,-12 -10,-12 -1,0 -2,0 -3,0 -1,0 -4,0 -5,-1 -2,-1 -3,-3 -2,-6 1,-2 2,-2 5,-2 0,0 0,0 1,0 0,0 1,0 1,0 1,0 1,0 2,0 1,0 7,0 8,-1 0,0 1,-1 1,-1 0,-1 0,-2 -1,-3 0,0 -1,-1 -2,-1 -1,0 -3,0 -5,0 0,-1 0,-2 0,-3 0,-2 0,-2 -1,-3 -1,-1 -2,-1 -3,0 -1,0 -2,1 -2,2z"/>
  </g>
 </g>
</svg>
