<?xml version="1.0" encoding="UTF-8"?>
<!DOCTYPE svg PUBLIC "-//W3C//DTD SVG 1.1//EN" "http://www.w3.org/Graphics/SVG/1.1/DTD/svg11.dtd">
<!-- Creator: CorelDRAW X7 -->
<svg xmlns="http://www.w3.org/2000/svg" xml:space="preserve" width="51.8085mm" height="51.8396mm" version="1.1" style="shape-rendering:geometricPrecision; text-rendering:geometricPrecision; image-rendering:optimizeQuality; fill-rule:evenodd; clip-rule:evenodd"
viewBox="0 0 250 250"
 xmlns:xlink="http://www.w3.org/1999/xlink">
 <defs>
  <style type="text/css">
   <![CDATA[
    .str0 {stroke:#FEFEFE;stroke-width:4.81797}
    .fil1 {fill:none}
    .fil0 {fill:#FEFEFE}
   ]]>
  </style>
 </defs>
 <g id="Layer_x0020_1">
  <metadata id="CorelCorpID_0Corel-Layer"/>
  <g id="_3060064095200">
   <path class="fil0" d="M125 38c48,0 86,39 86,87 0,9 -1,18 -4,26 5,1 9,3 12,4l1 0c4,-6 10,-7 17,-8 2,-1 4,-1 6,-1l4 -1c0,0 0,0 0,0 1,0 1,0 1,0 3,-4 1,-43 0,-40l-1 0c-2,-1 -12,-1 -20,-4 -6,-3 -9,-8 -12,-14 -5,-12 -1,-18 6,-28 2,-2 3,-4 5,-7 -1,-3 -10,-13 -13,-16 -3,-2 -5,-5 -8,-7l-1 -1 -6 -5c-1,1 -10,8 -15,11 -10,5 -20,2 -28,-4 -1,-1 -3,-2 -4,-3 -3,-4 -5,-17 -6,-23l0 -2c-1,-2 -17,-2 -19,-2 -7,0 -13,1 -20,1l-1 1c-1,6 -3,21 -7,25 -8,8 -20,13 -31,7 -3,-2 -6,-3 -8,-5 -2,-1 -6,-5 -7,-6 -1,2 -3,3 -4,4l-8 6c-1,2 -2,2 -3,4 -4,3 -13,12 -14,15 4,4 8,10 11,15 4,7 4,12 0,20 -2,6 -6,11 -11,14 -5,1 -11,2 -16,3 -1,0 -5,0 -5,1 -3,5 -3,35 0,40 0,0 0,0 0,0 0,0 0,0 0,0 2,1 20,2 25,6 3,4 5,7 7,12 4,7 4,13 0,20 -3,4 -7,11 -11,14 1,2 5,7 6,9 1,1 1,1 2,1 3,4 9,10 13,13 1,1 2,2 4,3 1,1 3,2 4,3 0,0 10,-8 15,-10 6,-4 12,-4 20,-1 14,6 15,14 17,27 0,2 0,6 1,6 5,2 35,2 40,0 0,0 0,0 0,0 0,0 0,0 0,0 0,0 0,-1 0,-1l0 -1c1,-6 3,-19 6,-23 1,-1 2,-2 4,-3 -2,-4 -4,-8 -4,-12 -9,2 -17,3 -26,3 -48,0 -87,-38 -87,-86 0,-48 39,-87 87,-87z"/>
   <path class="fil1 str0" d="M129 122c12,-2 22,-11 24,-23 2,-10 -1,-20 -7,-27 -7,-6 -15,-9 -24,-8 -11,1 -21,9 -25,19 -3,10 -1,22 6,29 6,7 16,11 26,10z"/>
   <path class="fil1 str0" d="M93 178c3,2 7,3 11,5 6,2 13,3 21,3 7,0 14,-1 21,-3 4,-2 8,-3 11,-5 6,-4 12,-8 16,-13 0,-8 0,-16 0,-24 -10,-2 -21,-4 -31,-6 -6,9 -28,9 -34,0 -11,2 -21,4 -32,7 0,7 0,15 0,23 5,5 10,9 17,13z"/>
   <circle class="fil1 str0" cx="198" cy="200" r="44"/>
   <path class="fil0" d="M195 172l0 6 -2 0c-4,-1 -8,3 -9,5 -5,6 -3,16 4,19 3,2 5,2 9,2 2,0 8,0 9,1 3,2 4,7 0,9 -2,2 -3,1 -4,1 -1,1 -1,1 -2,1 -3,0 -12,-1 -14,0 -2,1 -4,5 0,7 0,0 2,0 3,0l6 0 0 5c0,3 3,5 5,4 2,-1 2,-2 2,-4 0,-1 0,-3 0,-5 2,0 5,0 6,-1 4,-2 6,-5 7,-8 3,-8 -3,-17 -13,-17 -1,0 -2,0 -3,0 -2,0 -6,-1 -7,-1 -3,-1 -5,-4 -3,-8 1,-2 3,-3 6,-3 1,0 1,0 2,0 1,0 1,0 2,0 1,0 1,0 2,0 2,0 9,0 10,-1 1,0 2,-1 2,-2 0,-1 0,-2 -1,-3 0,-1 -1,-1 -2,-1 -3,0 -5,0 -8,0 0,-2 0,-4 0,-5 0,-2 0,-3 -1,-4 -2,-1 -3,-1 -4,0 -2,1 -2,1 -2,3z"/>
  </g>
 </g>
</svg>
