<?xml version="1.0" encoding="UTF-8"?>
<!DOCTYPE svg PUBLIC "-//W3C//DTD SVG 1.1//EN" "http://www.w3.org/Graphics/SVG/1.1/DTD/svg11.dtd">
<!-- Creator: CorelDRAW X7 -->
<svg xmlns="http://www.w3.org/2000/svg" xml:space="preserve" width="44.5566mm" height="45.973mm" version="1.1" style="shape-rendering:geometricPrecision; text-rendering:geometricPrecision; image-rendering:optimizeQuality; fill-rule:evenodd; clip-rule:evenodd"
viewBox="0 0 466 481"
 xmlns:xlink="http://www.w3.org/1999/xlink">
 <defs>
  <style type="text/css">
   <![CDATA[
    .str0 {stroke:#FEFEFE;stroke-width:10.4582}
    .str1 {stroke:#FEFEFE;stroke-width:5.22912}
    .str2 {stroke:#FEFEFE;stroke-width:2.61456}
    .fil1 {fill:none}
    .fil0 {fill:#FEFEFE}
   ]]>
  </style>
 </defs>
 <g id="Layer_x0020_1">
  <metadata id="CorelCorpID_0Corel-Layer"/>
  <g id="_3060037574448">
   <path class="fil0" d="M108 396l7 -4c1,-1 2,-2 3,-2 0,-1 -1,0 1,-1 2,1 2,2 3,4l6 6c0,1 0,0 0,1 1,1 0,-1 1,1 1,1 1,1 1,2 2,0 7,7 7,8l2 1c1,2 6,7 7,9 1,1 2,2 3,3 1,1 5,6 5,7 1,1 1,0 2,1 0,1 0,1 1,1 0,1 1,2 1,3 2,1 2,1 3,2 0,1 0,1 1,2 1,1 0,0 1,1 1,1 2,2 3,4 1,1 2,2 3,3l-7 4c-1,1 -2,2 -3,2 -2,2 -9,5 -11,6l-2 2 -13 -15c-1,-1 -3,-3 -3,-5 -2,-1 -2,0 -2,-2 -2,-1 -6,-6 -6,-7 -2,-1 -4,-3 -4,-5 -1,0 -2,-1 -3,-2 0,-1 0,-1 -1,-2 -1,-1 -1,-1 -1,-1 -2,-2 -3,-4 -5,-6 -1,-1 -1,-2 -2,-2 0,-1 0,-1 -1,-1 -1,-2 0,0 0,-2 -2,-1 -3,-2 -4,-3 -1,-2 -2,-3 -3,-5 -2,0 -1,0 -2,-1 1,-2 9,-7 12,-7zm-89 -41c0,-4 1,-8 2,-11 0,0 0,0 1,-1 0,-1 0,0 0,-1 1,-5 12,-16 17,-18 1,-1 1,-1 3,-2 1,0 2,-1 3,-2 1,0 1,0 2,-1 1,-1 0,0 2,0 1,-2 15,-10 16,-10l1 4c1,2 2,7 2,8 0,1 0,0 0,1 0,1 1,1 1,2 0,0 0,1 0,2l2 6c2,1 5,9 6,11 1,1 1,2 2,4 1,1 3,5 4,6l21 23c-1,1 -3,2 -4,2 -1,1 -1,1 -2,2 -1,0 -1,0 -2,1 -2,1 -3,1 -4,2l-3 1c-1,1 -3,2 -5,3 -2,1 -3,3 -5,3 -1,1 -3,2 -4,2 -1,1 0,0 -1,1 -1,0 -2,1 -2,1 -1,0 -2,0 -4,1 -1,1 -5,1 -7,1l-2 1c0,0 -1,0 -2,0 -1,0 -2,0 -4,0 -2,-1 -5,-1 -6,-2 -2,0 -4,-1 -6,-2 -1,-1 -1,0 -1,-1 -1,0 -1,0 -1,-1 -2,0 -4,-2 -6,-3 -2,-1 -3,-2 -4,-4 -3,-3 -6,-7 -8,-11 -1,-3 -1,-6 -2,-9l0 -9zm97 -91c0,-1 0,-1 1,-2 1,-1 1,-1 1,-1 1,-1 2,-3 3,-4 1,-1 2,-3 3,-3 1,-1 1,-2 2,-3 1,0 1,-1 1,-1 1,-1 0,0 1,-1 1,-1 0,0 1,-1 1,-1 1,-1 1,-2 1,-1 1,-2 2,-2 1,-2 2,-3 3,-4 1,-1 1,-2 2,-2 1,-2 0,-1 1,-2 1,-1 0,0 1,-1 1,-1 1,-1 1,-1 2,-3 5,-7 7,-10 2,-3 5,-8 7,-10l3 -6c1,-1 2,-4 4,-5 1,-2 2,-3 3,-5 2,-3 7,-13 8,-14l5 -8c1,-1 0,-1 1,-1l0 0c0,-2 4,-10 6,-12 0,-1 2,-5 3,-7l2 -3 4 -8c0,-3 3,-10 6,-5 1,1 2,3 2,4 1,1 6,9 6,11l0 0c2,2 5,8 6,10 1,1 4,7 6,9 1,2 1,3 2,5 1,1 2,3 3,5 1,1 1,2 2,3 1,1 1,2 2,4 1,1 1,1 1,2 2,1 2,3 4,6 1,2 2,3 3,5 1,1 1,2 1,3 1,1 1,0 1,2 1,0 1,1 1,1 1,2 2,2 2,4 1,1 2,3 3,5 1,1 2,3 2,4 1,1 1,1 2,2l4 8c0,0 0,0 1,1l5 9c2,4 5,7 6,11 1,0 3,4 3,5l3 4c1,2 4,8 5,10 0,0 0,0 0,0l1 1c0,0 0,1 0,1 1,1 1,1 1,2 1,1 1,0 1,1 1,1 1,1 1,2 1,1 1,1 2,3 1,1 5,9 6,11l0 0c1,1 2,2 3,4 1,2 2,3 2,5 1,1 11,17 11,19 0,0 0,0 1,1l1 2c1,2 2,2 2,4 1,1 2,2 2,3 1,2 6,9 6,11 1,1 2,2 2,5 -2,0 -5,0 -7,0l-16 -2 -7 0c-17,0 -33,-1 -50,0 -2,0 -7,0 -9,0 -1,1 -9,1 -11,1 -1,1 -6,1 -8,1l-6 1c-2,0 -5,1 -7,1 -2,0 -5,1 -8,1l-21 4c-2,1 -5,2 -7,1 -1,1 -1,1 -3,1 -1,1 -2,1 -3,1 -2,1 -4,1 -6,1 -2,1 -7,2 -9,2 -1,1 0,1 -1,1 -1,0 -1,0 -1,0 -1,1 -2,1 -3,1 -2,1 -3,1 -5,1 -1,1 -4,2 -5,2 -5,1 -23,-18 -25,-23l0 -1c-2,-1 -2,-3 -3,-4 -1,-2 -2,-3 -3,-5 -1,-2 -3,-6 -4,-8 -1,-1 -1,-2 -1,-3 -1,-2 -2,-6 -2,-8l-3 -11 0 -6c2,-3 6,-5 8,-8l25 -25zm72 -143c-1,0 -2,1 -3,2 -1,0 -1,1 -2,1 -1,1 0,0 -1,0l-4 7c0,1 -1,2 -2,3 0,2 -3,10 -5,11 0,1 0,0 0,2 0,0 -1,1 -1,2 -1,1 -1,1 -2,2 0,1 0,2 0,3 -1,1 -1,1 -2,1 0,2 -3,8 -4,9 -1,2 -3,6 -4,7 0,1 -1,2 -2,3 0,2 -10,18 -12,21l-5 7c-1,2 -1,2 -2,2 0,2 -5,9 -6,10 -1,1 -1,1 -1,2 0,0 -1,1 -1,1 -1,0 0,0 -1,0 0,2 0,1 -1,2 0,1 0,1 -1,2 -1,1 -1,2 -2,2l-4 6c0,0 -1,1 -1,1 0,1 0,0 -1,1 0,1 0,0 -1,2 0,0 -1,0 -1,1 -1,1 -6,8 -8,9l0 0c-1,3 -9,11 -11,14 -4,4 -8,8 -12,12 -5,5 -18,18 -26,21 -1,1 -3,3 -5,3 -1,2 -3,3 -5,3 -1,1 -3,2 -5,3 -1,1 -3,2 -4,2 -1,1 -1,1 -1,1 -1,1 -1,0 -1,1 -1,0 -1,0 -2,1 -1,1 -4,3 -6,3 -1,1 -4,2 -5,4 -7,5 -13,12 -14,12 0,1 0,1 0,2 0,0 -1,0 -1,0 -1,2 -2,3 -3,5l-1 3c-1,1 -1,1 -1,1l-3 9c-3,14 -3,16 0,30 1,2 2,6 2,8 1,1 4,7 5,8 2,3 4,5 6,8 7,8 13,10 15,12 1,0 4,1 5,2l5 2 9 2 10 1 7 -1c1,-1 5,-1 7,-2l5 -1c2,0 0,-1 1,0 2,1 3,3 4,5 1,1 3,3 4,4 1,1 1,2 2,3 2,1 5,5 6,7 2,1 3,3 4,5 2,1 3,3 5,5 1,2 4,5 5,7 1,0 1,0 1,1 2,1 1,1 2,2l7 8c1,2 1,1 1,2 3,2 10,13 15,16 3,3 7,4 12,4 5,-1 7,-3 11,-5l19 -10 7 -5c0,-1 -1,0 0,-1 1,-1 1,-1 1,-2 1,-1 2,-2 2,-4l1 -2c1,-7 -1,-11 -5,-16 0,-1 -1,-1 -1,-2 -1,-1 -1,0 -1,-2 -1,0 -1,0 -1,0 0,0 -1,-1 -1,-1 -1,-1 -1,-1 -2,-2 -1,-1 -4,-5 -5,-7 -1,-1 -4,-4 -5,-5 0,-1 -1,-1 -1,-2 -1,-1 -1,-1 -2,-2 -2,-1 -2,-2 -3,-4 -1,-1 -3,-2 -4,-4l-2 -2c-1,-2 -2,-4 -4,-5 -2,-2 -3,-4 -4,-5 -3,-3 -7,-8 -9,-11 1,-1 7,-3 9,-2 2,-2 10,-3 11,-4 3,0 5,-1 8,-1l3 -1c1,0 2,0 3,0 2,-1 4,-1 6,-2 2,0 16,-3 18,-2l12 -3 5 0c1,0 2,-1 3,-1 2,0 3,0 4,0 3,0 5,-1 8,-1 1,0 4,0 5,0 1,-1 1,0 3,0 1,0 3,0 4,0 2,-1 5,-1 7,-1l10 0 15 0c2,0 4,0 5,1 2,-1 14,0 16,1 2,-1 6,0 9,0 2,0 3,0 5,0 2,0 3,0 4,1l2 0c8,0 8,-1 14,-3l1 -1c1,-2 2,-2 3,-3 10,-12 1,-25 0,-28 -1,0 -10,-17 -10,-18l-7 -11c-2,-3 -4,-7 -6,-10 0,-1 -1,-2 -1,-3 -2,-2 -3,-5 -4,-7 -1,-1 -5,-7 -5,-9l-2 -3c-1,-1 -4,-6 -4,-8l3 -11 0 -7 -1 -6c-1,-2 -1,-4 -2,-6 -1,-1 -1,-3 -2,-4 0,-1 -1,-3 -2,-4 0,-1 0,0 -1,-2 -1,-1 0,0 -1,-2l-6 -6c-1,-2 -3,-3 -4,-4 -3,-2 -5,-4 -9,-5 -3,-2 -7,-3 -10,-4 -1,0 -1,0 -2,-2 0,0 0,-1 -1,-2 -1,-2 -2,-2 -2,-4 -2,-1 -5,-8 -6,-10 -1,-2 -5,-7 -5,-9 -1,-1 -2,-2 -2,-4 -1,-1 -2,-2 -2,-3 -1,-2 -1,-1 -1,-3 -2,-1 -6,-9 -7,-11 -1,-1 -1,-2 -1,-3l-5 -7c-1,-1 -1,-2 -2,-4 -1,-1 -1,-1 -2,-2 0,-1 0,-1 0,-2 -1,-1 -1,0 -1,-1 -1,-1 0,0 -1,-1 0,-1 0,-1 -1,-2l-4 -7c-2,0 -2,-1 -3,-1 -1,-1 -1,-1 -2,-2 -1,-1 -6,-2 -7,-3 -7,0 -7,1 -12,2z"/>
   <circle class="fil1 str0" transform="matrix(1.17098 -0.564939 0.564939 1.17098 357.602 162.461)" r="41"/>
   <path class="fil0" d="M341 136l2 5 -2 2c-4,1 -6,6 -7,9 -1,8 5,17 14,17 4,0 6,0 10,-2 2,-1 8,-4 10,-4 3,1 7,5 4,10 -1,2 -2,2 -4,3 0,0 -1,1 -2,1 -3,1 -12,6 -13,7 -2,2 -2,7 2,7 1,0 3,-1 4,-1l6 -3 3 5c1,3 5,4 7,1 0,-2 1,-2 0,-4 -1,-2 -2,-4 -3,-5 2,-1 4,-3 6,-5 3,-3 3,-7 3,-11 -1,-10 -12,-16 -21,-11 -1,1 -2,1 -4,2 -2,0 -5,2 -7,2 -3,1 -6,-2 -7,-6 0,-3 1,-4 5,-6 1,0 1,-1 2,-1 0,0 1,-1 2,-1 1,0 1,-1 2,-1 2,-1 9,-4 10,-6 0,-1 1,-2 0,-3 0,-1 -1,-2 -2,-3 -1,0 -2,0 -3,1 -3,1 -5,2 -8,3 -1,-2 -1,-3 -2,-5 -1,-2 -2,-2 -3,-3 -2,0 -3,1 -4,2 -1,1 -1,2 0,4z"/>
   <circle class="fil1 str1" transform="matrix(0.798806 -0.385383 0.385383 0.798806 371.832 281.986)" r="41"/>
   <circle class="fil1 str1" transform="matrix(0.572902 -0.276396 0.276396 0.572902 437.106 222.57)" r="41"/>
   <circle class="fil1 str1" transform="matrix(0.572902 -0.276396 0.276396 0.572902 272.272 119.126)" r="41"/>
   <circle class="fil1 str1" transform="matrix(0.798806 -0.385383 0.385383 0.798806 317.293 39.2314)" r="41"/>
   <circle class="fil1 str2" transform="matrix(0.248873 -0.120068 0.120068 0.248873 433.579 284.256)" r="41"/>
   <circle class="fil1 str2" transform="matrix(0.248873 -0.120068 0.120068 0.248873 370.219 80.8531)" r="41"/>
  </g>
 </g>
</svg>
